^F:\MAPZ\LAB0\MAPZ\LAB1\C++CODE\C++CODE\C++CODE.CPP
C:\WINDOWS\GLOBALIZATION\SORTING\SORTDEFAULT.NLS
F:\VISUAL STUDIO\VISUAL STUDIO IDE\VC\TOOLS\MSVC\14.29.30133\BIN\HOSTX86\X86\1033\CLUI.DLL
C:\WINDOWS\SYSTEM32\TZRES.DLL
F:\VISUAL STUDIO\VISUAL STUDIO IDE\VC\TOOLS\MSVC\14.29.30133\INCLUDE\IOSTREAM
F:\VISUAL STUDIO\VISUAL STUDIO IDE\VC\TOOLS\MSVC\14.29.30133\INCLUDE\YVALS_CORE.H
F:\VISUAL STUDIO\VISUAL STUDIO IDE\VC\TOOLS\MSVC\14.29.30133\INCLUDE\VCRUNTIME.H
F:\VISUAL STUDIO\VISUAL STUDIO IDE\VC\TOOLS\MSVC\14.29.30133\INCLUDE\SAL.H
F:\VISUAL STUDIO\VISUAL STUDIO IDE\VC\TOOLS\MSVC\14.29.30133\INCLUDE\CONCURRENCYSAL.H
F:\VISUAL STUDIO\VISUAL STUDIO IDE\VC\TOOLS\MSVC\14.29.30133\INCLUDE\VADEFS.H
F:\VISUAL STUDIO\VISUAL STUDIO IDE\VC\TOOLS\MSVC\14.29.30133\INCLUDE\XKEYCHECK.H
F:\VISUAL STUDIO\VISUAL STUDIO IDE\VC\TOOLS\MSVC\14.29.30133\INCLUDE\ISTREAM
F:\VISUAL STUDIO\VISUAL STUDIO IDE\VC\TOOLS\MSVC\14.29.30133\INCLUDE\OSTREAM
F:\VISUAL STUDIO\VISUAL STUDIO IDE\VC\TOOLS\MSVC\14.29.30133\INCLUDE\IOS
F:\VISUAL STUDIO\VISUAL STUDIO IDE\VC\TOOLS\MSVC\14.29.30133\INCLUDE\XLOCNUM
F:\VISUAL STUDIO\VISUAL STUDIO IDE\VC\TOOLS\MSVC\14.29.30133\INCLUDE\CLIMITS
F:\VISUAL STUDIO\VISUAL STUDIO IDE\VC\TOOLS\MSVC\14.29.30133\INCLUDE\LIMITS.H
F:\VISUAL STUDIO\VISUAL STUDIO IDE\VC\TOOLS\MSVC\14.29.30133\INCLUDE\CMATH
F:\VISUAL STUDIO\VISUAL STUDIO IDE\VC\TOOLS\MSVC\14.29.30133\INCLUDE\YVALS.H
F:\WINDOWS KITS\10\INCLUDE\10.0.18362.0\UCRT\CRTDBG.H
F:\WINDOWS KITS\10\INCLUDE\10.0.18362.0\UCRT\CORECRT.H
F:\VISUAL STUDIO\VISUAL STUDIO IDE\VC\TOOLS\MSVC\14.29.30133\INCLUDE\VCRUNTIME_NEW_DEBUG.H
F:\VISUAL STUDIO\VISUAL STUDIO IDE\VC\TOOLS\MSVC\14.29.30133\INCLUDE\VCRUNTIME_NEW.H
F:\VISUAL STUDIO\VISUAL STUDIO IDE\VC\TOOLS\MSVC\14.29.30133\INCLUDE\CRTDEFS.H
F:\VISUAL STUDIO\VISUAL STUDIO IDE\VC\TOOLS\MSVC\14.29.30133\INCLUDE\USE_ANSI.H
F:\VISUAL STUDIO\VISUAL STUDIO IDE\VC\TOOLS\MSVC\14.29.30133\INCLUDE\CSTDLIB
F:\WINDOWS KITS\10\INCLUDE\10.0.18362.0\UCRT\MATH.H
F:\WINDOWS KITS\10\INCLUDE\10.0.18362.0\UCRT\CORECRT_MATH.H
F:\WINDOWS KITS\10\INCLUDE\10.0.18362.0\UCRT\STDLIB.H
F:\WINDOWS KITS\10\INCLUDE\10.0.18362.0\UCRT\CORECRT_MALLOC.H
F:\WINDOWS KITS\10\INCLUDE\10.0.18362.0\UCRT\CORECRT_SEARCH.H
F:\WINDOWS KITS\10\INCLUDE\10.0.18362.0\UCRT\STDDEF.H
F:\WINDOWS KITS\10\INCLUDE\10.0.18362.0\UCRT\CORECRT_WSTDLIB.H
F:\VISUAL STUDIO\VISUAL STUDIO IDE\VC\TOOLS\MSVC\14.29.30133\INCLUDE\XTR1COMMON
F:\VISUAL STUDIO\VISUAL STUDIO IDE\VC\TOOLS\MSVC\14.29.30133\INCLUDE\INTRIN0.H
F:\VISUAL STUDIO\VISUAL STUDIO IDE\VC\TOOLS\MSVC\14.29.30133\INCLUDE\INTRIN0.INL.H
F:\VISUAL STUDIO\VISUAL STUDIO IDE\VC\TOOLS\MSVC\14.29.30133\INCLUDE\CSTDIO
F:\WINDOWS KITS\10\INCLUDE\10.0.18362.0\UCRT\STDIO.H
F:\WINDOWS KITS\10\INCLUDE\10.0.18362.0\UCRT\CORECRT_WSTDIO.H
F:\WINDOWS KITS\10\INCLUDE\10.0.18362.0\UCRT\CORECRT_STDIO_CONFIG.H
F:\VISUAL STUDIO\VISUAL STUDIO IDE\VC\TOOLS\MSVC\14.29.30133\INCLUDE\ITERATOR
F:\VISUAL STUDIO\VISUAL STUDIO IDE\VC\TOOLS\MSVC\14.29.30133\INCLUDE\IOSFWD
F:\VISUAL STUDIO\VISUAL STUDIO IDE\VC\TOOLS\MSVC\14.29.30133\INCLUDE\CSTRING
F:\WINDOWS KITS\10\INCLUDE\10.0.18362.0\UCRT\STRING.H
F:\WINDOWS KITS\10\INCLUDE\10.0.18362.0\UCRT\CORECRT_MEMORY.H
F:\WINDOWS KITS\10\INCLUDE\10.0.18362.0\UCRT\CORECRT_MEMCPY_S.H
F:\WINDOWS KITS\10\INCLUDE\10.0.18362.0\UCRT\ERRNO.H
F:\VISUAL STUDIO\VISUAL STUDIO IDE\VC\TOOLS\MSVC\14.29.30133\INCLUDE\VCRUNTIME_STRING.H
F:\WINDOWS KITS\10\INCLUDE\10.0.18362.0\UCRT\CORECRT_WSTRING.H
F:\VISUAL STUDIO\VISUAL STUDIO IDE\VC\TOOLS\MSVC\14.29.30133\INCLUDE\CWCHAR
F:\WINDOWS KITS\10\INCLUDE\10.0.18362.0\UCRT\WCHAR.H
F:\WINDOWS KITS\10\INCLUDE\10.0.18362.0\UCRT\CORECRT_WCONIO.H
F:\WINDOWS KITS\10\INCLUDE\10.0.18362.0\UCRT\CORECRT_WCTYPE.H
F:\WINDOWS KITS\10\INCLUDE\10.0.18362.0\UCRT\CORECRT_WDIRECT.H
F:\WINDOWS KITS\10\INCLUDE\10.0.18362.0\UCRT\CORECRT_WIO.H
F:\WINDOWS KITS\10\INCLUDE\10.0.18362.0\UCRT\CORECRT_SHARE.H
F:\WINDOWS KITS\10\INCLUDE\10.0.18362.0\UCRT\CORECRT_WPROCESS.H
F:\WINDOWS KITS\10\INCLUDE\10.0.18362.0\UCRT\CORECRT_WTIME.H
F:\WINDOWS KITS\10\INCLUDE\10.0.18362.0\UCRT\SYS\STAT.H
F:\WINDOWS KITS\10\INCLUDE\10.0.18362.0\UCRT\SYS\TYPES.H
F:\VISUAL STUDIO\VISUAL STUDIO IDE\VC\TOOLS\MSVC\14.29.30133\INCLUDE\XSTDDEF
F:\VISUAL STUDIO\VISUAL STUDIO IDE\VC\TOOLS\MSVC\14.29.30133\INCLUDE\CSTDDEF
F:\VISUAL STUDIO\VISUAL STUDIO IDE\VC\TOOLS\MSVC\14.29.30133\INCLUDE\INITIALIZER_LIST
F:\VISUAL STUDIO\VISUAL STUDIO IDE\VC\TOOLS\MSVC\14.29.30133\INCLUDE\XUTILITY
F:\VISUAL STUDIO\VISUAL STUDIO IDE\VC\TOOLS\MSVC\14.29.30133\INCLUDE\UTILITY
F:\VISUAL STUDIO\VISUAL STUDIO IDE\VC\TOOLS\MSVC\14.29.30133\INCLUDE\TYPE_TRAITS
F:\VISUAL STUDIO\VISUAL STUDIO IDE\VC\TOOLS\MSVC\14.29.30133\INCLUDE\CSTDINT
F:\VISUAL STUDIO\VISUAL STUDIO IDE\VC\TOOLS\MSVC\14.29.30133\INCLUDE\STDINT.H
F:\VISUAL STUDIO\VISUAL STUDIO IDE\VC\TOOLS\MSVC\14.29.30133\INCLUDE\STREAMBUF
F:\VISUAL STUDIO\VISUAL STUDIO IDE\VC\TOOLS\MSVC\14.29.30133\INCLUDE\XIOSBASE
F:\WINDOWS KITS\10\INCLUDE\10.0.18362.0\UCRT\SHARE.H
F:\VISUAL STUDIO\VISUAL STUDIO IDE\VC\TOOLS\MSVC\14.29.30133\INCLUDE\SYSTEM_ERROR
F:\VISUAL STUDIO\VISUAL STUDIO IDE\VC\TOOLS\MSVC\14.29.30133\INCLUDE\__MSVC_SYSTEM_ERROR_ABI.HPP
F:\VISUAL STUDIO\VISUAL STUDIO IDE\VC\TOOLS\MSVC\14.29.30133\INCLUDE\CERRNO
F:\VISUAL STUDIO\VISUAL STUDIO IDE\VC\TOOLS\MSVC\14.29.30133\INCLUDE\STDEXCEPT
F:\VISUAL STUDIO\VISUAL STUDIO IDE\VC\TOOLS\MSVC\14.29.30133\INCLUDE\EXCEPTION
F:\WINDOWS KITS\10\INCLUDE\10.0.18362.0\UCRT\MALLOC.H
F:\VISUAL STUDIO\VISUAL STUDIO IDE\VC\TOOLS\MSVC\14.29.30133\INCLUDE\VCRUNTIME_EXCEPTION.H
F:\VISUAL STUDIO\VISUAL STUDIO IDE\VC\TOOLS\MSVC\14.29.30133\INCLUDE\EH.H
F:\WINDOWS KITS\10\INCLUDE\10.0.18362.0\UCRT\CORECRT_TERMINATE.H
F:\VISUAL STUDIO\VISUAL STUDIO IDE\VC\TOOLS\MSVC\14.29.30133\INCLUDE\XSTRING
F:\VISUAL STUDIO\VISUAL STUDIO IDE\VC\TOOLS\MSVC\14.29.30133\INCLUDE\XMEMORY
F:\VISUAL STUDIO\VISUAL STUDIO IDE\VC\TOOLS\MSVC\14.29.30133\INCLUDE\LIMITS
F:\VISUAL STUDIO\VISUAL STUDIO IDE\VC\TOOLS\MSVC\14.29.30133\INCLUDE\CFLOAT
F:\WINDOWS KITS\10\INCLUDE\10.0.18362.0\UCRT\FLOAT.H
F:\VISUAL STUDIO\VISUAL STUDIO IDE\VC\TOOLS\MSVC\14.29.30133\INCLUDE\ISA_AVAILABILITY.H
F:\VISUAL STUDIO\VISUAL STUDIO IDE\VC\TOOLS\MSVC\14.29.30133\INCLUDE\NEW
F:\VISUAL STUDIO\VISUAL STUDIO IDE\VC\TOOLS\MSVC\14.29.30133\INCLUDE\XATOMIC.H
F:\VISUAL STUDIO\VISUAL STUDIO IDE\VC\TOOLS\MSVC\14.29.30133\INCLUDE\XCALL_ONCE.H
F:\VISUAL STUDIO\VISUAL STUDIO IDE\VC\TOOLS\MSVC\14.29.30133\INCLUDE\XERRC.H
F:\VISUAL STUDIO\VISUAL STUDIO IDE\VC\TOOLS\MSVC\14.29.30133\INCLUDE\ATOMIC
F:\VISUAL STUDIO\VISUAL STUDIO IDE\VC\TOOLS\MSVC\14.29.30133\INCLUDE\XTHREADS.H
F:\VISUAL STUDIO\VISUAL STUDIO IDE\VC\TOOLS\MSVC\14.29.30133\INCLUDE\XTIMEC.H
F:\VISUAL STUDIO\VISUAL STUDIO IDE\VC\TOOLS\MSVC\14.29.30133\INCLUDE\CTIME
F:\WINDOWS KITS\10\INCLUDE\10.0.18362.0\UCRT\TIME.H
F:\VISUAL STUDIO\VISUAL STUDIO IDE\VC\TOOLS\MSVC\14.29.30133\INCLUDE\XLOCALE
F:\VISUAL STUDIO\VISUAL STUDIO IDE\VC\TOOLS\MSVC\14.29.30133\INCLUDE\MEMORY
F:\VISUAL STUDIO\VISUAL STUDIO IDE\VC\TOOLS\MSVC\14.29.30133\INCLUDE\TYPEINFO
F:\VISUAL STUDIO\VISUAL STUDIO IDE\VC\TOOLS\MSVC\14.29.30133\INCLUDE\VCRUNTIME_TYPEINFO.H
F:\VISUAL STUDIO\VISUAL STUDIO IDE\VC\TOOLS\MSVC\14.29.30133\INCLUDE\XFACET
F:\VISUAL STUDIO\VISUAL STUDIO IDE\VC\TOOLS\MSVC\14.29.30133\INCLUDE\XLOCINFO
F:\VISUAL STUDIO\VISUAL STUDIO IDE\VC\TOOLS\MSVC\14.29.30133\INCLUDE\XLOCINFO.H
F:\VISUAL STUDIO\VISUAL STUDIO IDE\VC\TOOLS\MSVC\14.29.30133\INCLUDE\CCTYPE
F:\WINDOWS KITS\10\INCLUDE\10.0.18362.0\UCRT\CTYPE.H
F:\VISUAL STUDIO\VISUAL STUDIO IDE\VC\TOOLS\MSVC\14.29.30133\INCLUDE\CLOCALE
F:\WINDOWS KITS\10\INCLUDE\10.0.18362.0\UCRT\LOCALE.H
F:\VISUAL STUDIO\VISUAL STUDIO IDE\VC\TOOLS\MSVC\14.29.30133\INCLUDE\CHRONO
F:\VISUAL STUDIO\VISUAL STUDIO IDE\VC\TOOLS\MSVC\14.29.30133\INCLUDE\RATIO
