^F:\MAPZ\LAB0\MAPZ\LAB1\C++CODE\C++CODE\C++CODE.CPP
F:\MAPZ\LAB0\MAPZ\LAB1\C++CODE\C++CODE\DEBUG\VC142.PDB
F:\MAPZ\LAB0\MAPZ\LAB1\C++CODE\C++CODE\DEBUG\VC142.IDB
F:\MAPZ\LAB0\MAPZ\LAB1\C++CODE\C++CODE\DEBUG\C++CODE.OBJ
